{
	"info": {
		"_postman_id": "c0a7778c-f03b-48ea-9ece-b644f432ec8d",
		"name": "TADA CMS API's-Beta",
		"schema": "https://schema.getpostman.com/json/collection/v2.1.0/collection.json"
	},
	"item": [
		{
			"name": "v2",
			"item": [
				{
					"name": "API - Custom Login",
					"request": {
						"method": "POST",
						"header": [],
						"body": {
							"mode": "formdata",
							"formdata": [
								{
									"key": "mobile",
									"value": "9566167593",
									"type": "text"
								},
								{
									"key": "mobile_code",
									"value": "+91",
									"type": "text"
								}
							]
						},
						"url": {
							"raw": "https://cmsstage.tada-time.com/api/customLogin",
							"protocol": "https",
							"host": [
								"cmsstage",
								"tada-time",
								"com"
							],
							"path": [
								"api",
								"customLogin"
							]
						}
					},
					"response": []
				},
				{
					"name": "API - Send OTP",
					"request": {
						"method": "POST",
						"header": [],
						"body": {
							"mode": "formdata",
							"formdata": [
								{
									"key": "mobile",
									"value": "9566167593",
									"type": "text"
								},
								{
									"key": "mobile_code",
									"value": "+91",
									"type": "text"
								}
							]
						},
						"url": {
							"raw": "https://cmsstage.tada-time.com/api/sendOTP",
							"protocol": "https",
							"host": [
								"cmsstage",
								"tada-time",
								"com"
							],
							"path": [
								"api",
								"sendOTP"
							]
						}
					},
					"response": []
				},
				{
					"name": "API - Country DialCode",
					"request": {
						"method": "POST",
						"header": [],
						"body": {
							"mode": "formdata",
							"formdata": [
								{
									"key": "region",
									"value": "91",
									"type": "text"
								}
							]
						},
						"url": {
							"raw": "https://cmsstage.tada-time.com/api/getCountryDialCode",
							"protocol": "https",
							"host": [
								"cmsstage",
								"tada-time",
								"com"
							],
							"path": [
								"api",
								"getCountryDialCode"
							]
						}
					},
					"response": []
				},
				{
					"name": "API - Verify OTP",
					"request": {
						"method": "POST",
						"header": [],
						"body": {
							"mode": "formdata",
							"formdata": [
								{
									"key": "mobile",
									"value": "9566167593",
									"type": "text"
								},
								{
									"key": "mobile_code",
									"value": "+91",
									"type": "text"
								},
								{
									"key": "verification_code",
									"value": "919266",
									"type": "text"
								}
							]
						},
						"url": {
							"raw": "https://cmsstage.tada-time.com/api/verifyOTP",
							"protocol": "https",
							"host": [
								"cmsstage",
								"tada-time",
								"com"
							],
							"path": [
								"api",
								"verifyOTP"
							]
						}
					},
					"response": []
				},
				{
					"name": "API - Check UniqueId",
					"request": {
						"method": "POST",
						"header": [],
						"body": {
							"mode": "formdata",
							"formdata": [
								{
									"key": "tada_id",
									"value": "Augsdvja120",
									"type": "text"
								}
							]
						},
						"url": {
							"raw": "https://cmsstage.tada-time.com/api/checkUniqueId",
							"protocol": "https",
							"host": [
								"cmsstage",
								"tada-time",
								"com"
							],
							"path": [
								"api",
								"checkUniqueId"
							]
						}
					},
					"response": []
				},
				{
					"name": "API - Custom Register",
					"request": {
						"method": "POST",
						"header": [],
						"body": {
							"mode": "formdata",
							"formdata": [
								{
									"key": "mobile",
									"value": "9566167605",
									"type": "text"
								},
								{
									"key": "mobile_code",
									"value": "+91",
									"type": "text"
								}
							]
						},
						"url": {
							"raw": "https://cmsstage.tada-time.com/api/customRegister",
							"protocol": "https",
							"host": [
								"cmsstage",
								"tada-time",
								"com"
							],
							"path": [
								"api",
								"customRegister"
							]
						}
					},
					"response": []
				},
				{
					"name": "API - Social Login",
					"request": {
						"method": "POST",
						"header": [],
						"body": {
							"mode": "formdata",
							"formdata": [
								{
									"key": "email",
									"value": "test3@gmail.com",
									"type": "text",
									"disabled": true
								},
								{
									"key": "email",
									"value": "337234ohr93ert4@facebook.com",
									"type": "text"
								}
							]
						},
						"url": {
							"raw": "https://cmsstage.tada-time.com/api/socialLogin",
							"protocol": "https",
							"host": [
								"cmsstage",
								"tada-time",
								"com"
							],
							"path": [
								"api",
								"socialLogin"
							]
						}
					},
					"response": []
				},
				{
					"name": "API - Update Profile",
					"request": {
						"method": "POST",
						"header": [],
						"body": {
							"mode": "formdata",
							"formdata": [
								{
									"key": "user_id",
									"value": "1",
									"type": "text"
								},
								{
									"key": "name",
									"value": "user1",
									"type": "text"
								},
								{
									"key": "tada_id",
									"value": "Augsdvja12",
									"type": "text"
								},
								{
									"key": "gender",
									"value": "Male",
									"type": "text"
								},
								{
									"key": "region",
									"value": "India",
									"type": "text"
								},
								{
									"key": "bio",
									"value": "All is well",
									"type": "text"
								},
								{
									"key": "mobile_code",
									"value": "+91",
									"type": "text"
								},
								{
									"key": "profile_image",
									"type": "file",
									"src": "/C:/Users/AugRay/Downloads/sobapgmimages/p6.jpg"
								}
							]
						},
						"url": {
							"raw": "https://cmsstage.tada-time.com/api/updateProfile",
							"protocol": "https",
							"host": [
								"cmsstage",
								"tada-time",
								"com"
							],
							"path": [
								"api",
								"updateProfile"
							]
						}
					},
					"response": []
				},
				{
					"name": "API - Add Category",
					"request": {
						"method": "POST",
						"header": [],
						"body": {
							"mode": "formdata",
							"formdata": [
								{
									"key": "category_name",
									"value": "Song",
									"type": "text"
								}
							]
						},
						"url": {
							"raw": "https://cmsstage.tada-time.com/api/addCategory",
							"protocol": "https",
							"host": [
								"cmsstage",
								"tada-time",
								"com"
							],
							"path": [
								"api",
								"addCategory"
							]
						}
					},
					"response": []
				},
				{
					"name": "API - Add User Category",
					"request": {
						"method": "POST",
						"header": [],
						"body": {
							"mode": "formdata",
							"formdata": [
								{
									"key": "user_id",
									"value": "1",
									"type": "text"
								},
								{
									"key": "category_id",
									"value": "[1,2]",
									"type": "text"
								}
							]
						},
						"url": {
							"raw": "https://cmsstage.tada-time.com/api/addUserCategory",
							"protocol": "https",
							"host": [
								"cmsstage",
								"tada-time",
								"com"
							],
							"path": [
								"api",
								"addUserCategory"
							]
						}
					},
					"response": []
				},
				{
					"name": "API - Get Search Categories",
					"request": {
						"method": "POST",
						"header": [],
						"body": {
							"mode": "formdata",
							"formdata": [
								{
									"key": "search",
									"value": "",
									"type": "text"
								}
							]
						},
						"url": {
							"raw": "https://cmsstage.tada-time.com/api/getSearchCategories",
							"protocol": "https",
							"host": [
								"cmsstage",
								"tada-time",
								"com"
							],
							"path": [
								"api",
								"getSearchCategories"
							]
						}
					},
					"response": []
				},
				{
					"name": "API - getUserCategories",
					"request": {
						"method": "POST",
						"header": [],
						"body": {
							"mode": "formdata",
							"formdata": [
								{
									"key": "user_id",
									"value": "1",
									"type": "text"
								}
							]
						},
						"url": {
							"raw": "https://cmsstage.tada-time.com/api/getUserCategories",
							"protocol": "https",
							"host": [
								"cmsstage",
								"tada-time",
								"com"
							],
							"path": [
								"api",
								"getUserCategories"
							]
						}
					},
					"response": []
				},
				{
					"name": "API - Get User Profile",
					"request": {
						"method": "POST",
						"header": [],
						"body": {
							"mode": "formdata",
							"formdata": [
								{
									"key": "user_id",
									"value": "1",
									"type": "text"
								}
							]
						},
						"url": {
							"raw": "https://cmsstage.tada-time.com/api/getUserProfile",
							"protocol": "https",
							"host": [
								"cmsstage",
								"tada-time",
								"com"
							],
							"path": [
								"api",
								"getUserProfile"
							]
						}
					},
					"response": []
				},
				{
					"name": "API - Get FollowList",
					"request": {
						"method": "POST",
						"header": [],
						"body": {
							"mode": "formdata",
							"formdata": [
								{
									"key": "user_id",
									"value": "1",
									"type": "text"
								},
								{
									"key": "type",
									"value": "follower",
									"type": "text"
								}
							]
						},
						"url": {
							"raw": "https://cmsstage.tada-time.com/api/getFollowList",
							"protocol": "https",
							"host": [
								"cmsstage",
								"tada-time",
								"com"
							],
							"path": [
								"api",
								"getFollowList"
							]
						}
					},
					"response": []
				},
				{
					"name": "API - Friend Status",
					"request": {
						"method": "POST",
						"header": [],
						"body": {
							"mode": "formdata",
							"formdata": [
								{
									"key": "from_id",
									"value": "1",
									"type": "text"
								},
								{
									"key": "to_id",
									"value": "2",
									"type": "text"
								},
								{
									"key": "status",
									"value": "Block",
									"type": "text"
								}
							]
						},
						"url": {
							"raw": "https://cmsstage.tada-time.com/api/friendStatus",
							"protocol": "https",
							"host": [
								"cmsstage",
								"tada-time",
								"com"
							],
							"path": [
								"api",
								"friendStatus"
							]
						}
					},
					"response": []
				},
				{
					"name": "API - Save Videos",
					"request": {
						"method": "POST",
						"header": [],
						"body": {
							"mode": "formdata",
							"formdata": [
								{
									"key": "user_id",
									"value": "2",
									"type": "text"
								},
								{
									"key": "video_name",
									"value": "vid3",
									"type": "text"
								},
								{
									"key": "visibility_status",
									"value": "public",
									"type": "text"
								},
								{
									"key": "language_id",
									"value": "1",
									"type": "text"
								},
								{
									"key": "category_id",
									"value": "1",
									"type": "text"
								},
								{
									"key": "thumbnail_img",
									"value": "https://fixarv2.s3.ap-south-1.amazonaws.com/FixAR/video-placeholder.jpg",
									"type": "text"
								},
								{
									"key": "video_type",
									"value": "live",
									"description": "live/draft",
									"type": "text"
								},
								{
									"key": "video_url",
									"value": "https://fixarv2.s3.ap-south-1.amazonaws.com/FixAR/video-placeholder.mp4",
									"type": "text"
								},
								{
									"key": "tag_id",
									"value": "[1,2]",
									"type": "text"
								},
								{
									"key": "description",
									"value": "description",
									"type": "text"
								},
								{
									"key": "friends_id",
									"value": "[1,2]",
									"type": "text"
								},
								{
									"key": "animation_id",
									"value": "[1,2]",
									"type": "text"
								}
							]
						},
						"url": {
							"raw": "https://cmsstage.tada-time.com/api/saveVideos",
							"protocol": "https",
							"host": [
								"cmsstage",
								"tada-time",
								"com"
							],
							"path": [
								"api",
								"saveVideos"
							]
						}
					},
					"response": []
				},
				{
					"name": "API - updateVideo",
					"request": {
						"method": "POST",
						"header": [],
						"body": {
							"mode": "formdata",
							"formdata": [
								{
									"key": "user_id",
									"value": "1",
									"type": "text"
								},
								{
									"key": "video_id",
									"value": "2",
									"type": "text"
								},
								{
									"key": "is_liked",
									"value": "Yes",
									"type": "text",
									"disabled": true
								},
								{
									"key": "views_count",
									"value": "1",
									"type": "text"
								}
							]
						},
						"url": {
							"raw": "https://cmsstage.tada-time.com/api/updateVideo",
							"protocol": "https",
							"host": [
								"cmsstage",
								"tada-time",
								"com"
							],
							"path": [
								"api",
								"updateVideo"
							]
						}
					},
					"response": []
				},
				{
					"name": "API - addComment",
					"request": {
						"method": "POST",
						"header": [],
						"body": {
							"mode": "formdata",
							"formdata": [
								{
									"key": "user_id",
									"value": "1",
									"type": "text"
								},
								{
									"key": "video_id",
									"value": "2",
									"type": "text"
								},
								{
									"key": "comment",
									"value": "nice good",
									"type": "text"
								}
							]
						},
						"url": {
							"raw": "https://cmsstage.tada-time.com/api/addComment",
							"protocol": "https",
							"host": [
								"cmsstage",
								"tada-time",
								"com"
							],
							"path": [
								"api",
								"addComment"
							]
						}
					},
					"response": []
				},
				{
					"name": "API - updateComment",
					"request": {
						"method": "POST",
						"header": [],
						"body": {
							"mode": "formdata",
							"formdata": [
								{
									"key": "comment_id",
									"value": "2",
									"type": "text"
								},
								{
									"key": "comment",
									"value": "nice fine",
									"type": "text"
								}
							]
						},
						"url": {
							"raw": "https://cmsstage.tada-time.com/api/updateComment",
							"protocol": "https",
							"host": [
								"cmsstage",
								"tada-time",
								"com"
							],
							"path": [
								"api",
								"updateComment"
							]
						}
					},
					"response": []
				},
				{
					"name": "API - deleteComment",
					"request": {
						"method": "POST",
						"header": [],
						"body": {
							"mode": "formdata",
							"formdata": [
								{
									"key": "comment_id",
									"value": "2",
									"type": "text"
								},
								{
									"key": "comment",
									"value": "nice fine",
									"type": "text",
									"disabled": true
								}
							]
						},
						"url": {
							"raw": "https://cmsstage.tada-time.com/api/deleteComment",
							"protocol": "https",
							"host": [
								"cmsstage",
								"tada-time",
								"com"
							],
							"path": [
								"api",
								"deleteComment"
							]
						}
					},
					"response": []
				},
				{
					"name": "API - likeComments",
					"request": {
						"method": "POST",
						"header": [],
						"body": {
							"mode": "formdata",
							"formdata": [
								{
									"key": "comment_id",
									"value": "3",
									"type": "text"
								},
								{
									"key": "user_id",
									"value": "2",
									"type": "text"
								},
								{
									"key": "is_liked",
									"value": "Yes",
									"description": "//Yes/No",
									"type": "text"
								}
							]
						},
						"url": {
							"raw": "https://cmsstage.tada-time.com/api/likeComments",
							"protocol": "https",
							"host": [
								"cmsstage",
								"tada-time",
								"com"
							],
							"path": [
								"api",
								"likeComments"
							]
						}
					},
					"response": []
				},
				{
					"name": "API - submitFeedback",
					"request": {
						"method": "POST",
						"header": [],
						"body": {
							"mode": "formdata",
							"formdata": [
								{
									"key": "user_id",
									"value": "1",
									"type": "text"
								},
								{
									"key": "video_id",
									"value": "1",
									"type": "text",
									"disabled": true
								},
								{
									"key": "feedback_id",
									"value": "3",
									"type": "text",
									"disabled": true
								}
							]
						},
						"url": {
							"raw": "https://cmsstage.tada-time.com/api/submitFeedback",
							"protocol": "https",
							"host": [
								"cmsstage",
								"tada-time",
								"com"
							],
							"path": [
								"api",
								"submitFeedback"
							]
						}
					},
					"response": []
				},
				{
					"name": "API - getSingleVideo",
					"request": {
						"method": "POST",
						"header": [],
						"body": {
							"mode": "formdata",
							"formdata": [
								{
									"key": "video_id",
									"value": "2",
									"type": "text"
								},
								{
									"key": "to_id",
									"value": "2",
									"description": "optional-to get friend status",
									"type": "text"
								}
							]
						},
						"url": {
							"raw": "https://cmsstage.tada-time.com/api/getSingleVideo",
							"protocol": "https",
							"host": [
								"cmsstage",
								"tada-time",
								"com"
							],
							"path": [
								"api",
								"getSingleVideo"
							]
						}
					},
					"response": []
				},
				{
					"name": "API - getAllVideos",
					"request": {
						"method": "POST",
						"header": [],
						"body": {
							"mode": "formdata",
							"formdata": [
								{
									"key": "type",
									"value": "live",
									"description": "live/draft",
									"type": "text"
								},
								{
									"key": "to_id",
									"value": "2",
									"type": "text",
									"disabled": true
								},
								{
									"key": "user_id",
									"value": "1",
									"type": "text"
								}
							]
						},
						"url": {
							"raw": "https://cmsstage.tada-time.com/api/getAllVideos",
							"protocol": "https",
							"host": [
								"cmsstage",
								"tada-time",
								"com"
							],
							"path": [
								"api",
								"getAllVideos"
							]
						}
					},
					"response": []
				},
				{
					"name": "API - addReplyComment",
					"request": {
						"method": "POST",
						"header": [],
						"body": {
							"mode": "formdata",
							"formdata": [
								{
									"key": "user_id",
									"value": "1",
									"type": "text"
								},
								{
									"key": "parent_comment_id",
									"value": "2",
									"type": "text"
								},
								{
									"key": "comment",
									"value": "nice good",
									"type": "text"
								}
							]
						},
						"url": {
							"raw": "https://cmsstage.tada-time.com/api/addReplyComment",
							"protocol": "https",
							"host": [
								"cmsstage",
								"tada-time",
								"com"
							],
							"path": [
								"api",
								"addReplyComment"
							]
						}
					},
					"response": []
				},
				{
					"name": "API - updateReplyComment",
					"request": {
						"method": "POST",
						"header": [],
						"body": {
							"mode": "formdata",
							"formdata": [
								{
									"key": "reply_comment_id",
									"value": "1",
									"type": "text"
								},
								{
									"key": "comment",
									"value": "nice fine",
									"type": "text"
								}
							]
						},
						"url": {
							"raw": "https://cmsstage.tada-time.com/api/updateReplyComment",
							"protocol": "https",
							"host": [
								"cmsstage",
								"tada-time",
								"com"
							],
							"path": [
								"api",
								"updateReplyComment"
							]
						}
					},
					"response": []
				},
				{
					"name": "API - deleteReplyComment",
					"request": {
						"method": "POST",
						"header": [],
						"body": {
							"mode": "formdata",
							"formdata": [
								{
									"key": "reply_comment_id",
									"value": "1",
									"type": "text"
								},
								{
									"key": "comment",
									"value": "nice fine",
									"type": "text",
									"disabled": true
								}
							]
						},
						"url": {
							"raw": "https://cmsstage.tada-time.com/api/deleteReplyComment",
							"protocol": "https",
							"host": [
								"cmsstage",
								"tada-time",
								"com"
							],
							"path": [
								"api",
								"deleteReplyComment"
							]
						}
					},
					"response": []
				},
				{
					"name": "API - likeReplyComments",
					"request": {
						"method": "POST",
						"header": [],
						"body": {
							"mode": "formdata",
							"formdata": [
								{
									"key": "reply_comment_id",
									"value": "1",
									"type": "text"
								},
								{
									"key": "user_id",
									"value": "2",
									"type": "text"
								},
								{
									"key": "is_liked",
									"value": "Yes",
									"description": "//Yes/No",
									"type": "text"
								}
							]
						},
						"url": {
							"raw": "https://cmsstage.tada-time.com/api/likeReplyComments",
							"protocol": "https",
							"host": [
								"cmsstage",
								"tada-time",
								"com"
							],
							"path": [
								"api",
								"likeReplyComments"
							]
						}
					},
					"response": []
				}
			]
		},
		{
			"name": "v1",
			"item": [
				{
					"name": "API - Get Categories",
					"request": {
						"method": "GET",
						"header": [],
						"url": {
							"raw": "https://beta.tada-time.com/api/getCategories",
							"protocol": "https",
							"host": [
								"beta",
								"tada-time",
								"com"
							],
							"path": [
								"api",
								"getCategories"
							]
						}
					},
					"response": []
				},
				{
					"name": "API - Register",
					"request": {
						"method": "POST",
						"header": [],
						"body": {
							"mode": "formdata",
							"formdata": [
								{
									"key": "name",
									"value": "Test4",
									"type": "text"
								},
								{
									"key": "email",
									"value": "test4@gmail.com",
									"type": "text"
								},
								{
									"key": "password",
									"value": "Test@123",
									"type": "text"
								},
								{
									"key": "password_confirm",
									"value": "Test@123",
									"type": "text"
								},
								{
									"key": "primary_language",
									"value": "1",
									"type": "text"
								},
								{
									"key": "secondary_language",
									"value": "1",
									"type": "text"
								}
							]
						},
						"url": {
							"raw": "https://beta.tada-time.com/api/register",
							"protocol": "https",
							"host": [
								"beta",
								"tada-time",
								"com"
							],
							"path": [
								"api",
								"register"
							]
						}
					},
					"response": []
				},
				{
					"name": "API - Login",
					"request": {
						"method": "POST",
						"header": [],
						"body": {
							"mode": "formdata",
							"formdata": [
								{
									"key": "email",
									"value": "test3@gmail.com",
									"type": "text"
								},
								{
									"key": "password",
									"value": "Test@123",
									"type": "text"
								}
							]
						},
						"url": {
							"raw": "https://beta.tada-time.com/api/login",
							"protocol": "https",
							"host": [
								"beta",
								"tada-time",
								"com"
							],
							"path": [
								"api",
								"login"
							]
						}
					},
					"response": []
				},
				{
					"name": "API - Save Face Texture",
					"request": {
						"method": "POST",
						"header": [],
						"body": {
							"mode": "formdata",
							"formdata": [
								{
									"key": "avatar_url",
									"value": "https://arlive.us/dev/tada/assets/demo/box.glb",
									"type": "text",
									"disabled": true
								},
								{
									"key": "userId",
									"value": "3",
									"type": "text"
								},
								{
									"key": "imageName",
									"value": "Test_Face_Texture_1",
									"type": "text"
								},
								{
									"key": "type",
									"value": "self",
									"description": "awardee/self",
									"type": "text"
								},
								{
									"key": "faceTexture",
									"type": "file",
									"src": "download.jpeg"
								},
								{
									"key": "color_code",
									"value": "[101.34,122.34,122.3,0]",
									"description": "Get this value from generateUVMap API",
									"type": "text"
								}
							]
						},
						"url": {
							"raw": "https://beta.tada-time.com/api/saveUserAvatar",
							"protocol": "https",
							"host": [
								"beta",
								"tada-time",
								"com"
							],
							"path": [
								"api",
								"saveUserAvatar"
							]
						}
					},
					"response": []
				},
				{
					"name": "API - Save User Avatar Details",
					"request": {
						"method": "POST",
						"header": [],
						"body": {
							"mode": "formdata",
							"formdata": [
								{
									"key": "userId",
									"value": "3",
									"type": "text"
								},
								{
									"key": "avatarName",
									"value": "Batmansfdsadsab",
									"type": "text"
								},
								{
									"key": "costumeDetails",
									"value": "{\"1\":\"2\",\"4\":\"9\"}",
									"description": "KEY-VALUE PAIRS",
									"type": "text"
								},
								{
									"key": "animationDetails",
									"value": "{\"1\":\"2\"}",
									"type": "text"
								},
								{
									"key": "faceId",
									"value": "1",
									"description": "Value from Previous API - Save Face Textures",
									"type": "text"
								},
								{
									"key": "gender",
									"value": "Male",
									"type": "text"
								},
								{
									"key": "shareTitle",
									"value": "Hello",
									"type": "text"
								},
								{
									"key": "shareMessage",
									"value": "Congrats",
									"type": "text"
								},
								{
									"key": "music_url",
									"value": "https://augraylite.s3-ap-southeast-1.amazonaws.com/tada_cms/Animation/Dance/Dab/audio_url_cfc861400d6c9514ff58903ea276b56c.mp3",
									"description": "optional",
									"type": "text",
									"disabled": true
								},
								{
									"key": "bg_music_url",
									"value": "https://augraylite.s3-ap-southeast-1.amazonaws.com/tada_cms/Animation/Dance/Dab/audio_url_cfc861400d6c9514ff58903ea276b56c.mp3",
									"description": "optional",
									"type": "text",
									"disabled": true
								},
								{
									"key": "tier",
									"value": "4",
									"type": "text"
								}
							]
						},
						"url": {
							"raw": "https://beta.tada-time.com//api/saveUserAvatarDetails",
							"protocol": "https",
							"host": [
								"beta",
								"tada-time",
								"com"
							],
							"path": [
								"",
								"api",
								"saveUserAvatarDetails"
							]
						}
					},
					"response": []
				},
				{
					"name": "API - Update User Tier",
					"request": {
						"method": "POST",
						"header": [],
						"body": {
							"mode": "formdata",
							"formdata": [
								{
									"key": "userId",
									"value": "3",
									"type": "text"
								},
								{
									"key": "tier",
									"value": "2",
									"type": "text"
								}
							]
						},
						"url": {
							"raw": "https://beta.tada-time.com/api/updateUserTier",
							"protocol": "https",
							"host": [
								"beta",
								"tada-time",
								"com"
							],
							"path": [
								"api",
								"updateUserTier"
							]
						}
					},
					"response": []
				},
				{
					"name": "API - Get Poly Assets",
					"request": {
						"method": "GET",
						"header": [],
						"url": {
							"raw": "https://beta.tada-time.com/api/getPolyAssets/",
							"protocol": "https",
							"host": [
								"beta",
								"tada-time",
								"com"
							],
							"path": [
								"api",
								"getPolyAssets",
								""
							]
						}
					},
					"response": []
				},
				{
					"name": "API - Get Animations",
					"request": {
						"method": "POST",
						"header": [],
						"body": {
							"mode": "formdata",
							"formdata": [
								{
									"key": "default",
									"value": "1",
									"description": "optional",
									"type": "text",
									"disabled": true
								}
							]
						},
						"url": {
							"raw": "https://beta.tada-time.com/api/getAnimations",
							"protocol": "https",
							"host": [
								"beta",
								"tada-time",
								"com"
							],
							"path": [
								"api",
								"getAnimations"
							]
						}
					},
					"response": []
				},
				{
					"name": "API - Get All User Avatar Details",
					"protocolProfileBehavior": {
						"disableBodyPruning": true
					},
					"request": {
						"method": "GET",
						"header": [],
						"body": {
							"mode": "raw",
							"raw": ""
						},
						"url": {
							"raw": "https://beta.tada-time.com/api/getUserAvatars/3",
							"protocol": "https",
							"host": [
								"beta",
								"tada-time",
								"com"
							],
							"path": [
								"api",
								"getUserAvatars",
								"3"
							]
						}
					},
					"response": []
				},
				{
					"name": "Face Texture",
					"request": {
						"method": "POST",
						"header": [],
						"body": {
							"mode": "raw",
							"raw": "{\n   \"api_key\": \"f6e64ae9-0aa3-4668-adb9-9ccc4f3f4b0e\",\n   \"file_name\": \"https://patpat.augray.com/camera-images/download.jpeg\"\n}",
							"options": {
								"raw": {
									"language": "json"
								}
							}
						},
						"url": {
							"raw": "https://avatar.augray.com:5001/tadaface.php",
							"protocol": "https",
							"host": [
								"avatar",
								"augray",
								"com"
							],
							"port": "5001",
							"path": [
								"tadaface.php"
							]
						}
					},
					"response": []
				},
				{
					"name": "Pricing Plans",
					"request": {
						"method": "GET",
						"header": [],
						"url": {
							"raw": "https://beta.tada-time.com/api/getPricingPlans/",
							"protocol": "https",
							"host": [
								"beta",
								"tada-time",
								"com"
							],
							"path": [
								"api",
								"getPricingPlans",
								""
							]
						}
					},
					"response": []
				},
				{
					"name": "Get Default Categories",
					"request": {
						"method": "GET",
						"header": [],
						"url": {
							"raw": "https://beta.tada-time.com//api/getDefaultCategories/Male",
							"protocol": "https",
							"host": [
								"beta",
								"tada-time",
								"com"
							],
							"path": [
								"",
								"api",
								"getDefaultCategories",
								"Male"
							]
						}
					},
					"response": []
				},
				{
					"name": "Get Single Category",
					"request": {
						"method": "GET",
						"header": [],
						"url": {
							"raw": "https://beta.tada-time.com/api/getSingleCategory/12",
							"protocol": "https",
							"host": [
								"beta",
								"tada-time",
								"com"
							],
							"path": [
								"api",
								"getSingleCategory",
								"12"
							]
						}
					},
					"response": []
				},
				{
					"name": "Get Single Animation",
					"request": {
						"method": "GET",
						"header": [],
						"url": {
							"raw": "https://beta.tada-time.com/api/getSingleAnimation/91",
							"protocol": "https",
							"host": [
								"beta",
								"tada-time",
								"com"
							],
							"path": [
								"api",
								"getSingleAnimation",
								"91"
							]
						}
					},
					"response": []
				},
				{
					"name": "Get Single User Avatar Details",
					"request": {
						"method": "GET",
						"header": [],
						"url": {
							"raw": "https://beta.tada-time.com/api/getSingleUserAvatarDetails/8",
							"protocol": "https",
							"host": [
								"beta",
								"tada-time",
								"com"
							],
							"path": [
								"api",
								"getSingleUserAvatarDetails",
								"8"
							]
						}
					},
					"response": []
				},
				{
					"name": "Get Version",
					"request": {
						"method": "GET",
						"header": [],
						"url": {
							"raw": "https://beta.tada-time.com/api/getVersion",
							"protocol": "https",
							"host": [
								"beta",
								"tada-time",
								"com"
							],
							"path": [
								"api",
								"getVersion"
							]
						}
					},
					"response": []
				},
				{
					"name": "API - Save Analytics",
					"request": {
						"method": "POST",
						"header": [],
						"body": {
							"mode": "formdata",
							"formdata": [
								{
									"key": "avatarId",
									"value": "8",
									"type": "text"
								},
								{
									"key": "type",
									"value": "view",
									"description": "like/view",
									"type": "text"
								}
							]
						},
						"url": {
							"raw": "https://beta.tada-time.com/api/saveAnalytics",
							"protocol": "https",
							"host": [
								"beta",
								"tada-time",
								"com"
							],
							"path": [
								"api",
								"saveAnalytics"
							]
						}
					},
					"response": []
				},
				{
					"name": "API - Save Audios",
					"request": {
						"method": "POST",
						"header": [],
						"body": {
							"mode": "formdata",
							"formdata": [
								{
									"key": "userId",
									"value": "1",
									"type": "text"
								},
								{
									"key": "audioName",
									"value": "Dingfddfg1",
									"type": "text"
								},
								{
									"key": "audioUrl",
									"type": "file",
									"src": "audio_url_e8c87f761ab43cacf56326f11fdd04b4.mp3"
								}
							]
						},
						"url": {
							"raw": "https://beta.tada-time.com/api/saveSounds",
							"protocol": "https",
							"host": [
								"beta",
								"tada-time",
								"com"
							],
							"path": [
								"api",
								"saveSounds"
							]
						}
					},
					"response": []
				},
				{
					"name": "Get AllAudios",
					"request": {
						"method": "GET",
						"header": [],
						"url": {
							"raw": "https://beta.tada-time.com/api/getAllAudios/1",
							"protocol": "https",
							"host": [
								"beta",
								"tada-time",
								"com"
							],
							"path": [
								"api",
								"getAllAudios",
								"1"
							]
						}
					},
					"response": []
				}
			]
		}
	]
}