{
	"info": {
		"_postman_id": "922e5ed5-3ca4-4bf9-9072-36a3a231b8f6",
		"name": "onexr",
		"schema": "https://schema.getpostman.com/json/collection/v2.1.0/collection.json"
	},
	"item": [
		{
			"name": "login",
			"protocolProfileBehavior": {
				"disabledSystemHeaders": {}
			},
			"request": {
				"auth": {
					"type": "bearer",
					"bearer": [
						{
							"key": "token",
							"value": "HmfdmXrXDMTpyu9no7YDt0q3j26AVMFXU6MFpXxPmjtxH9NVVccBplC89CReaHpp",
							"type": "string"
						}
					]
				},
				"method": "POST",
				"header": [
					{
						"key": "Content-Type",
						"value": "application/json",
						"type": "default"
					}
				],
				"body": {
					"mode": "formdata",
					"formdata": [
						{
							"key": "email",
							"value": "admin@onexr.com",
							"type": "default"
						},
						{
							"key": "password",
							"value": "admin123",
							"type": "default"
						}
					]
				},
				"url": {
					"raw": "http://localhost:8000/login",
					"protocol": "http",
					"host": [
						"localhost"
					],
					"port": "8000",
					"path": [
						"login"
					]
				}
			},
			"response": []
		},
		{
			"name": "sendInvite",
			"protocolProfileBehavior": {
				"disabledSystemHeaders": {}
			},
			"request": {
				"auth": {
					"type": "bearer",
					"bearer": [
						{
							"key": "token",
							"value": "HmfdmXrXDMTpyu9no7YDt0q3j26AVMFXU6MFpXxPmjtxH9NVVccBplC89CReaHpp",
							"type": "string"
						}
					]
				},
				"method": "POST",
				"header": [
					{
						"key": "Content-Type",
						"value": "application/json",
						"type": "default"
					}
				],
				"body": {
					"mode": "formdata",
					"formdata": [
						{
							"key": "email",
							"value": "nallathambis@augray.com",
							"type": "default"
						}
					]
				},
				"url": {
					"raw": "http://localhost:8000/sendInvite",
					"protocol": "http",
					"host": [
						"localhost"
					],
					"port": "8000",
					"path": [
						"sendInvite"
					]
				}
			},
			"response": []
		},
		{
			"name": "resetPassword",
			"protocolProfileBehavior": {
				"disabledSystemHeaders": {}
			},
			"request": {
				"auth": {
					"type": "bearer",
					"bearer": [
						{
							"key": "token",
							"value": "HmfdmXrXDMTpyu9no7YDt0q3j26AVMFXU6MFpXxPmjtxH9NVVccBplC89CReaHpp",
							"type": "string"
						}
					]
				},
				"method": "POST",
				"header": [
					{
						"key": "Content-Type",
						"value": "application/json",
						"type": "default"
					}
				],
				"body": {
					"mode": "formdata",
					"formdata": [
						{
							"key": "email",
							"value": "nallathambis@augray.com",
							"type": "default"
						}
					]
				},
				"url": {
					"raw": "http://localhost:8000/resetPassword",
					"protocol": "http",
					"host": [
						"localhost"
					],
					"port": "8000",
					"path": [
						"resetPassword"
					]
				}
			},
			"response": []
		},
		{
			"name": "getCountryCode",
			"protocolProfileBehavior": {
				"disabledSystemHeaders": {}
			},
			"request": {
				"auth": {
					"type": "bearer",
					"bearer": [
						{
							"key": "token",
							"value": "HmfdmXrXDMTpyu9no7YDt0q3j26AVMFXU6MFpXxPmjtxH9NVVccBplC89CReaHpp",
							"type": "string"
						}
					]
				},
				"method": "POST",
				"header": [
					{
						"key": "Content-Type",
						"value": "application/json",
						"type": "default"
					}
				],
				"body": {
					"mode": "formdata",
					"formdata": []
				},
				"url": {
					"raw": "http://localhost:8000/getCountryCode",
					"protocol": "http",
					"host": [
						"localhost"
					],
					"port": "8000",
					"path": [
						"getCountryCode"
					]
				}
			},
			"response": []
		},
		{
			"name": "updateProfile",
			"protocolProfileBehavior": {
				"disabledSystemHeaders": {}
			},
			"request": {
				"auth": {
					"type": "bearer",
					"bearer": [
						{
							"key": "token",
							"value": "HmfdmXrXDMTpyu9no7YDt0q3j26AVMFXU6MFpXxPmjtxH9NVVccBplC89CReaHpp",
							"type": "string"
						}
					]
				},
				"method": "POST",
				"header": [
					{
						"key": "Content-Type",
						"value": "application/json",
						"type": "default"
					}
				],
				"body": {
					"mode": "formdata",
					"formdata": [
						{
							"key": "email",
							"value": "nallathambis@augray.com",
							"type": "default"
						},
						{
							"key": "password",
							"value": "admin123",
							"type": "default"
						}
					]
				},
				"url": {
					"raw": "http://localhost:8000/updateProfile",
					"protocol": "http",
					"host": [
						"localhost"
					],
					"port": "8000",
					"path": [
						"updateProfile"
					]
				}
			},
			"response": []
		},
		{
			"name": "addUser",
			"protocolProfileBehavior": {
				"disabledSystemHeaders": {}
			},
			"request": {
				"auth": {
					"type": "bearer",
					"bearer": [
						{
							"key": "token",
							"value": "HmfdmXrXDMTpyu9no7YDt0q3j26AVMFXU6MFpXxPmjtxH9NVVccBplC89CReaHpp",
							"type": "string"
						}
					]
				},
				"method": "POST",
				"header": [
					{
						"key": "Content-Type",
						"value": "application/json",
						"type": "default"
					}
				],
				"body": {
					"mode": "formdata",
					"formdata": [
						{
							"key": "email",
							"value": "nallatest21@onexr.com",
							"type": "default"
						},
						{
							"key": "firstName",
							"value": "user2",
							"type": "default"
						},
						{
							"key": "lastName",
							"value": "s",
							"type": "default"
						},
						{
							"key": "phoneCode",
							"value": "91",
							"type": "default"
						},
						{
							"key": "mobileNumber",
							"value": "9566167593",
							"type": "default"
						},
						{
							"key": "userType",
							"value": "Member",
							"type": "default"
						},
						{
							"key": "socialAccountUrl",
							"value": "http://facebook.com/nalla,https://youtube.com/nalla",
							"type": "default"
						},
						{
							"key": "profileImage",
							"type": "file",
							"src": "/C:/Users/AugRay/Downloads/sobapgmimages/p5jpg.jpg"
						},
						{
							"key": "password",
							"value": "",
							"type": "default"
						}
					]
				},
				"url": {
					"raw": "http://localhost:8000/addUser",
					"protocol": "http",
					"host": [
						"localhost"
					],
					"port": "8000",
					"path": [
						"addUser"
					]
				}
			},
			"response": []
		},
		{
			"name": "updateUser",
			"protocolProfileBehavior": {
				"disabledSystemHeaders": {}
			},
			"request": {
				"auth": {
					"type": "bearer",
					"bearer": [
						{
							"key": "token",
							"value": "HmfdmXrXDMTpyu9no7YDt0q3j26AVMFXU6MFpXxPmjtxH9NVVccBplC89CReaHpp",
							"type": "string"
						}
					]
				},
				"method": "POST",
				"header": [
					{
						"key": "Content-Type",
						"value": "application/json",
						"type": "default"
					}
				],
				"body": {
					"mode": "formdata",
					"formdata": [
						{
							"key": "firstName",
							"value": "user1",
							"type": "default"
						},
						{
							"key": "lastName",
							"value": "s",
							"type": "default"
						},
						{
							"key": "phoneCode",
							"value": "91",
							"type": "default"
						},
						{
							"key": "mobileNumber",
							"value": "9566167593",
							"type": "default"
						},
						{
							"key": "userType",
							"value": "Member",
							"type": "default"
						},
						{
							"key": "socialAccountUrl",
							"value": "http://facebook.com/nalla,https://youtube.com/nalla",
							"type": "default"
						},
						{
							"key": "profileImage",
							"type": "file",
							"src": "/C:/Users/AugRay/Downloads/sobapgmimages/p3.png"
						},
						{
							"key": "password",
							"value": "",
							"type": "default"
						},
						{
							"key": "languages",
							"value": "1,26",
							"type": "default"
						}
					]
				},
				"url": {
					"raw": "http://localhost:8000/updateUser/2",
					"protocol": "http",
					"host": [
						"localhost"
					],
					"port": "8000",
					"path": [
						"updateUser",
						"2"
					]
				}
			},
			"response": []
		},
		{
			"name": "getUser",
			"protocolProfileBehavior": {
				"disableBodyPruning": true,
				"disabledSystemHeaders": {}
			},
			"request": {
				"auth": {
					"type": "noauth"
				},
				"method": "GET",
				"header": [
					{
						"key": "Content-Type",
						"value": "application/json",
						"type": "default"
					}
				],
				"body": {
					"mode": "formdata",
					"formdata": [
						{
							"key": "userType",
							"value": "Client",
							"type": "default",
							"disabled": true
						}
					]
				},
				"url": {
					"raw": "http://localhost:8000/getUser/All",
					"protocol": "http",
					"host": [
						"localhost"
					],
					"port": "8000",
					"path": [
						"getUser",
						"All"
					]
				}
			},
			"response": []
		},
		{
			"name": "getSingleUser",
			"protocolProfileBehavior": {
				"disableBodyPruning": true,
				"disabledSystemHeaders": {}
			},
			"request": {
				"auth": {
					"type": "noauth"
				},
				"method": "GET",
				"header": [
					{
						"key": "Content-Type",
						"value": "application/json",
						"type": "default"
					}
				],
				"body": {
					"mode": "formdata",
					"formdata": [
						{
							"key": "userType",
							"value": "Client",
							"type": "default",
							"disabled": true
						}
					]
				},
				"url": {
					"raw": "http://localhost:8000/getSingleUser/2",
					"protocol": "http",
					"host": [
						"localhost"
					],
					"port": "8000",
					"path": [
						"getSingleUser",
						"2"
					]
				}
			},
			"response": []
		}
	]
}